{
    "KPlugin": {
        "Authors": [
            {
                "Name": "Roberto Raggi",
                "Name[ar]": "Roberto Raggi",
                "Name[az]": "Roberto Raggi",
                "Name[ca@valencia]": "Roberto Raggi",
                "Name[ca]": "Roberto Raggi",
                "Name[cs]": "Roberto Raggi",
                "Name[de]": "Roberto Raggi",
                "Name[el]": "Roberto Raggi",
                "Name[en_GB]": "Roberto Raggi",
                "Name[es]": "Roberto Raggi",
                "Name[et]": "Roberto Raggi",
                "Name[eu]": "Roberto Raggi",
                "Name[fr]": "Roberto Raggi",
                "Name[gl]": "Roberto Raggi",
                "Name[it]": "Roberto Raggi",
                "Name[ko]": "Roberto Raggi",
                "Name[nl]": "Roberto Raggi",
                "Name[nn]": "Roberto Raggi",
                "Name[pl]": "Roberto Raggi",
                "Name[pt]": "Roberto Raggi",
                "Name[pt_BR]": "Roberto Raggi",
                "Name[ru]": "Roberto Raggi",
                "Name[sk]": "Roberto Raggi",
                "Name[sl]": "Roberto Raggi",
                "Name[sv]": "Roberto Raggi",
                "Name[tr]": "Roberto Raggi",
                "Name[uk]": "Roberto Raggi",
                "Name[x-test]": "xxRoberto Raggixx",
                "Name[zh_CN]": "Roberto Raggi"
            }
        ],
        "Category": "Core",
        "Description": "Lets you manage the project contents.",
        "Description[ar]": "يتيح لك إدارة محتويات المشروع.",
        "Description[az]": "Layihənin tərkibindəkiləri idarə etməyə sizə imkan verir.",
        "Description[ca@valencia]": "Us permet gestionar els continguts del projecte.",
        "Description[ca]": "Us permet gestionar els continguts del projecte.",
        "Description[cs]": "Umožňuje spravovat obsah projektu.",
        "Description[de]": "Lässt Sie den Inhalt Ihres Projekts verwalten.",
        "Description[el]": "Σας επιτρέπει τη διαχείριση του περιεχομένου του έργου.",
        "Description[en_GB]": "Lets you manage the project contents.",
        "Description[es]": "Le permite gestionar el contenido del proyecto.",
        "Description[et]": "Võimaldab hallata projektide sisu.",
        "Description[eu]": "Proiektuaren edukia kudeatzen uzten dizu.",
        "Description[fr]": "Vous laisse gérer le contenu du projet.",
        "Description[gl]": "Permítelle xestionar os contidos do proxecto.",
        "Description[it]": "Consente di gestire i contenuti del progetto.",
        "Description[ko]": "프로젝트 내용을 관리할 수 있도록 합니다.",
        "Description[nl]": "Laat u de projectinhoud beheren.",
        "Description[pl]": "Umożliwia zarządzanie zawartością projektu.",
        "Description[pt]": "Permite-lhe gerir o conteúdo do projecto.",
        "Description[pt_BR]": "Permite-lhe gerenciar o conteúdo do projeto.",
        "Description[ru]": "Позволяет управлять содержимым проектов",
        "Description[sk]": "Umožní vám spravovať obsah projektu.",
        "Description[sl]": "Pomaga vam upravljati z vsebino projekta.",
        "Description[sv]": "Låter dig hantera projektets innehåll.",
        "Description[tr]": "Proje içeriğini yönetmenizi sağlar.",
        "Description[uk]": "Надає вам змогу керувати вмістом проєктів.",
        "Description[x-test]": "xxLets you manage the project contents.xx",
        "Description[zh_CN]": "让您管理工程内容。",
        "Description[zh_TW]": "讓您管理您的專案內容。",
        "Icon": "kdevelop",
        "Id": "KDevProjectManagerView",
        "License": "LGPL",
        "Name": "Project Manager View",
        "Name[ar]": "عرض مدير المشاريع",
        "Name[az]": "Layihə meneceri görünüşü",
        "Name[bg]": "Преглед на редактора на проекти",
        "Name[ca@valencia]": "Vista del gestor de projectes",
        "Name[ca]": "Vista del gestor de projectes",
        "Name[cs]": "Pohled správce projektů",
        "Name[da]": "Visning af projekthåndtering",
        "Name[de]": "Ansicht für Projektverwaltung",
        "Name[el]": "Προβολή διαχειριστή έργου",
        "Name[en_GB]": "Project Manager View",
        "Name[es]": "Vista del gestor de proyectos",
        "Name[et]": "Projektihalduri vaade",
        "Name[eu]": "Proiektu-kudeatzaile ikuspegia",
        "Name[fr]": "Vue du gestionnaire de projets",
        "Name[gl]": "Vista do xestor de proxectos",
        "Name[hu]": "Projektkezelő nézet",
        "Name[it]": "Vista gestore progetto",
        "Name[kk]": "Жоба менеджер көрінісі",
        "Name[ko]": "프로젝트 관리자 보기",
        "Name[nb]": "Prosjektbehandlervisning",
        "Name[nds]": "Projektpleger-Ansicht",
        "Name[nl]": "Projectbeheerder-overzicht",
        "Name[pa]": "ਪਰੋਜੈਕਟ ਮੈਨੇਜਰ ਝਲਕ",
        "Name[pl]": "Widok zarządzania projektem",
        "Name[pt]": "Área do Gestor de Projectos",
        "Name[pt_BR]": "Visualizador do gerenciador de projeto",
        "Name[ru]": "Панель управления проектами",
        "Name[sk]": "Pohľad na správcu projektu",
        "Name[sl]": "Pogled upravljalnika projektov",
        "Name[sv]": "Projekthanteringsvisning",
        "Name[tr]": "Proje Yöneticisi Görünümü",
        "Name[ug]": "قۇرۇلۇش باشقۇرغۇ كۆرۈنۈشى",
        "Name[uk]": "Перегляд керування проєктами",
        "Name[x-test]": "xxProject Manager Viewxx",
        "Name[zh_CN]": "工程管理器视图",
        "Name[zh_TW]": "專案管理員檢視"
    },
    "X-KDevelop-Category": "Global",
    "X-KDevelop-Mode": "GUI"
}
