{
    "KPlugin": {
        "Authors": [
            {
                "Name": "Morten Danielsen Volden",
                "Name[az]": "Morten Danielsen Volden",
                "Name[ca@valencia]": "Morten Danielsen Volden",
                "Name[ca]": "Morten Danielsen Volden",
                "Name[cs]": "Morten Danielsen Volden",
                "Name[de]": "Morten Danielsen Volden",
                "Name[el]": "Morten Danielsen Volden",
                "Name[en_GB]": "Morten Danielsen Volden",
                "Name[es]": "Morten Danielsen Volden",
                "Name[et]": "Morten Danielsen Volden",
                "Name[eu]": "Morten Danielsen Volden",
                "Name[fr]": "Morten Danielsen Volden",
                "Name[gl]": "Morten Danielsen Volden",
                "Name[it]": "Morten Danielsen Volden",
                "Name[ko]": "Morten Danielsen Volden",
                "Name[nl]": "Morten Danielsen Volden",
                "Name[nn]": "Morten Danielsen Volden",
                "Name[pl]": "Morten Danielsen Volden",
                "Name[pt]": "Morten Danielsen Volden",
                "Name[pt_BR]": "Morten Danielsen Volden",
                "Name[ru]": "Morten Danielsen Volden",
                "Name[sk]": "Morten Danielsen Volden",
                "Name[sl]": "Morten Danielsen Volden",
                "Name[sv]": "Morten Danielsen Volden",
                "Name[tr]": "Morten Danielsen Volden",
                "Name[uk]": "Morten Danielsen Volden",
                "Name[x-test]": "xxMorten Danielsen Voldenxx",
                "Name[zh_CN]": "Morten Danielsen Volden"
            }
        ],
        "Category": "Version Control",
        "Description": "Provides Integration with Perforce Version Control System",
        "Description[az]": "Perforce ilə Versiyaya Nəzarət Sisteminin inteqrasiyasını təmin edir",
        "Description[ca@valencia]": "Proporciona integració amb el sistema de control de versions Perforce",
        "Description[ca]": "Proporciona integració amb el sistema de control de versions Perforce",
        "Description[cs]": "Poskytuje integraci Perforce Version Control System",
        "Description[de]": "Bietet Integration mit der Perforce-Versionsverwaltung",
        "Description[el]": "Παρέχει ενσωμάτωση με το σύστημα ελέγχου εκδόσεων Perforce",
        "Description[en_GB]": "Provides Integration with Perforce Version Control System",
        "Description[es]": "Proporciona integración con el sistema de control de versiones Perforce",
        "Description[et]": "See võimaldab lõimimist Perforce'i versioonihaldussüsteemiga",
        "Description[eu]": "Perforce bertsio kontrol sistema integratzen du",
        "Description[fr]": "Fournit une intégration avec le système de contrôle de version Perforce",
        "Description[gl]": "Fornece integración co sistema de control de versións Perforce.",
        "Description[it]": "Fornisce l'integrazione con il sistema di controllo versione Perforce",
        "Description[ko]": "Perforce 버전 관리 시스템 통합",
        "Description[nl]": "Biedt ondersteuning voor Perforce versiecontrolesysteem",
        "Description[pl]": "Wplata zarządzanie wersjami Perforce",
        "Description[pt]": "Oferece a integração com o Sistema de Controlo de Versões Perforce",
        "Description[pt_BR]": "Oferece a integração com o Sistema de Controle de Versões Perforce",
        "Description[ru]": "Обеспечивает интеграцию с системой управления версиями Perforce",
        "Description[sk]": "Poskytuje integráciu s verzionovacím systémom Perforce",
        "Description[sl]": "Ponuja vgradnjo sistema za nadzor različic Perforce",
        "Description[sv]": "Tillhandahåller integrering med Perforce versionskontrollsystem",
        "Description[tr]": "Perforce Sürüm Denetim Sistemi ile Bütünleşme Sağlar",
        "Description[uk]": "Забезпечує інтеграцію з системою керування версіями Perforce",
        "Description[x-test]": "xxProvides Integration with Perforce Version Control Systemxx",
        "Description[zh_CN]": "提供与 Perforce 版本控制系统的整合",
        "Icon": "kdevelop",
        "Id": "kdevperforce",
        "License": "GPL",
        "Name": "Perforce Support",
        "Name[az]": "Perforce dəstəyi",
        "Name[ca@valencia]": "Implementació de Perforce",
        "Name[ca]": "Implementació del Perforce",
        "Name[cs]": "Podpora Perforce",
        "Name[de]": "Perforce-Unterstützung",
        "Name[el]": "Υποστήριξη perforce",
        "Name[en_GB]": "Perforce Support",
        "Name[es]": "Implementación de Perforce",
        "Name[et]": "Perforce'i toetus",
        "Name[eu]": "Perforce bateragarritasuna",
        "Name[fr]": "Prise en charge de Perforce",
        "Name[gl]": "Compatibilidade con Perforce",
        "Name[it]": "Supporto per Perforce",
        "Name[ko]": "Perforce 지원",
        "Name[nl]": "Ondersteuning van Perforce",
        "Name[pl]": "Obsługa Perforce",
        "Name[pt]": "Suporte para o Perforce",
        "Name[pt_BR]": "Suporte ao Perforce",
        "Name[ru]": "Поддержка Perforce",
        "Name[sk]": "Podpora Perforce",
        "Name[sl]": "Podpora za Perforce",
        "Name[sv]": "Perforce-stöd",
        "Name[tr]": "Perforce Desteği",
        "Name[uk]": "Підтримка Perforce",
        "Name[x-test]": "xxPerforce Supportxx",
        "Name[zh_CN]": "Perforce 支持",
        "Version": "5.0"
    },
    "X-KDevelop-Category": "Global",
    "X-KDevelop-Interfaces": [
        "org.kdevelop.IBasicVersionControl",
        "org.kdevelop.ICentralizedVersionControl"
    ],
    "X-KDevelop-Mode": "GUI"
}
