{
    "KPlugin": {
        "Category": "Project Management",
        "Description": "KDevelop Make Builder",
        "Description[az]": "KDevelop Make qurucusu",
        "Description[bs]": "KDevelop Make izgraditelj",
        "Description[ca@valencia]": "Constructor Make de KDevelop",
        "Description[ca]": "Constructor Make del KDevelop",
        "Description[de]": "Make-Builder von KDevelop",
        "Description[el]": "Κατασκευαστής make του KDevelop",
        "Description[en_GB]": "KDevelop Make Builder",
        "Description[es]": "Compilador Make para KDevelop",
        "Description[et]": "KDevelopi Make'i ehitaja",
        "Description[eu]": "KDevelop Make eraikitzailea",
        "Description[fi]": "KDevelop Make-käännin",
        "Description[fr]": "Constructeur Make de KDevelop",
        "Description[gl]": "Contrutor de Make para KDevelop.",
        "Description[it]": "Compilatore Make di KDevelop",
        "Description[ko]": "KDevelop Make 빌더",
        "Description[nl]": "KDevelop Make-bouwer",
        "Description[pl]": "Budowniczy Make",
        "Description[pt]": "Construtor de Projectos Make no KDevelop",
        "Description[pt_BR]": "Compilador do Make para o KDevelop",
        "Description[ru]": "Сборщик Make для KDevelop",
        "Description[sk]": "Prekladač KDevelop Make",
        "Description[sl]": "Izgrajevalnik Make za KDevelop",
        "Description[sv]": "KDevelop byggverktyg för Make",
        "Description[tr]": "KDevelop Make İnşa Edici",
        "Description[uk]": "Збирач Make для KDevelop",
        "Description[x-test]": "xxKDevelop Make Builderxx",
        "Description[zh_CN]": "KDevelop Make 构建器",
        "Icon": "kdevelop",
        "Id": "KDevMakeBuilder",
        "Name": "Make Project Builder",
        "Name[az]": "Make layihəsi qurucusu",
        "Name[bs]": "Napravi graditelja projekta",
        "Name[ca@valencia]": "Constructor de projecte Make",
        "Name[ca]": "Constructor de projecte Make",
        "Name[cs]": "Překladač projektů Make",
        "Name[de]": "Ersteller für Make-Projekte",
        "Name[el]": "Κατασκευαστής έργου make",
        "Name[en_GB]": "Make Project Builder",
        "Name[es]": "Compilador de proyectos Make",
        "Name[et]": "Make'i projektiehitaja",
        "Name[eu]": "Make proiektu eraikitzailea",
        "Name[fi]": "Make-projektikäännin",
        "Name[fr]": "Constructeur de projet Make",
        "Name[gl]": "Construtor de proxectos Make",
        "Name[it]": "Compilatore progetto Make",
        "Name[ko]": "Make 프로젝트 빌더",
        "Name[nl]": "Make-projectbouwer",
        "Name[pl]": "Budowniczy projektu Make",
        "Name[pt]": "Compilador de Projectos do Make",
        "Name[pt_BR]": "Compilador de projeto do Make",
        "Name[ru]": "Сборщик проектов Make",
        "Name[sk]": "Prekladač projektov Make",
        "Name[sl]": "Izgrajevalnik projektov Make",
        "Name[sv]": "Make-projektbyggverktyg",
        "Name[tr]": "Make Proje Oluşturucu",
        "Name[uk]": "Інструмент збирання проєктів Make",
        "Name[x-test]": "xxMake Project Builderxx",
        "Name[zh_CN]": "Make 工程构建器"
    },
    "X-KDevelop-Category": "Project",
    "X-KDevelop-IRequired": [
        "org.kdevelop.IOutputView"
    ],
    "X-KDevelop-Interfaces": [
        "org.kdevelop.IMakeBuilder"
    ],
    "X-KDevelop-Mode": "NoGUI"
}
