{
    "KPlugin": {
        "Authors": [
            {
                "Name": "Alexander Dymo",
                "Name[ar]": "Alexander Dymo",
                "Name[az]": "Alexander Dymo",
                "Name[ca@valencia]": "Alexander Dymo",
                "Name[ca]": "Alexander Dymo",
                "Name[cs]": "Alexander Dymo",
                "Name[de]": "Alexander Dymo",
                "Name[el]": "Alexander Dymo",
                "Name[en_GB]": "Alexander Dymo",
                "Name[es]": "Alexander Dymo",
                "Name[et]": "Alexander Dymo",
                "Name[eu]": "Alexander Dymo",
                "Name[fr]": "Alexander Dymo",
                "Name[gl]": "Alexander Dymo",
                "Name[it]": "Alexander Dymo",
                "Name[ko]": "Alexander Dymo",
                "Name[nl]": "Alexander Dymo",
                "Name[nn]": "Alexander Dymo",
                "Name[pl]": "Alexander Dymo",
                "Name[pt]": "Alexander Dymo",
                "Name[pt_BR]": "Alexander Dymo",
                "Name[ru]": "Александр Дымо",
                "Name[sk]": "Alexander Dymo",
                "Name[sl]": "Alexander Dymo",
                "Name[sv]": "Alexander Dymo",
                "Name[tr]": "Alexander Dymo",
                "Name[uk]": "Олександр Димо",
                "Name[x-test]": "xxAlexander Dymoxx",
                "Name[zh_CN]": "Alexander Dymo"
            }
        ],
        "Category": "Core",
        "Description": "Application Wizard",
        "Description[ar]": "مُرشد تطبيق",
        "Description[az]": "Tətbiq bələdçisi",
        "Description[ca@valencia]": "Assistent d'aplicació",
        "Description[ca]": "Assistent d'aplicació",
        "Description[cs]": "Průvodce aplikací",
        "Description[de]": "Anwendungsassistent",
        "Description[el]": "Οδηγός εφαρμογής",
        "Description[en_GB]": "Application Wizard",
        "Description[es]": "Asistente de aplicaciones",
        "Description[et]": "Rakenduse nõustaja",
        "Description[eu]": "Aplikazioaren morroia",
        "Description[fr]": "Assistant application",
        "Description[gl]": "Asistente para aplicacións",
        "Description[it]": "Procedura guidata per applicazioni",
        "Description[ko]": "프로그램 마법사",
        "Description[nl]": "Programma-assistent",
        "Description[pl]": "Pomocnik programu",
        "Description[pt]": "Assistente de Aplicações",
        "Description[pt_BR]": "Assistente de aplicativo",
        "Description[ru]": "Мастер создания приложений",
        "Description[sk]": "Sprievodca aplikáciou",
        "Description[sl]": "Čarovnik za programe",
        "Description[sv]": "Programguide",
        "Description[tr]": "Uygulama Sihirbazı",
        "Description[uk]": "Майстер створення програм",
        "Description[x-test]": "xxApplication Wizardxx",
        "Description[zh_CN]": "应用程序向导",
        "Description[zh_TW]": "應用程式精靈",
        "Icon": "project-development-new-template",
        "Id": "kdevappwizard",
        "License": "GPL",
        "Name": "New Project Wizard",
        "Name[ar]": "مُرشد مشروع جديد",
        "Name[az]": "Yeni layihə bələdçisi",
        "Name[bg]": "Съветник за нов проект",
        "Name[ca@valencia]": "Assistent de projecte nou",
        "Name[ca]": "Assistent de projecte nou",
        "Name[cs]": "Průvodce novým projektem",
        "Name[da]": "Guide til nyt projekt",
        "Name[de]": "Projekt-Assistent",
        "Name[el]": "Οδηγός ρύθμισης νέου έργου",
        "Name[en_GB]": "New Project Wizard",
        "Name[es]": "Asistente de nuevo proyecto",
        "Name[et]": "Uue projekti nõustaja",
        "Name[eu]": "Proiektu berri morroia",
        "Name[fr]": "Assistant de création de nouveau projet",
        "Name[gl]": "Asistente para proxectos novos",
        "Name[hu]": "Új projekt varázsló",
        "Name[it]": "Procedura guidata nuovo progetto",
        "Name[kk]": "Жаңа жоба шебері",
        "Name[ko]": "새 프로젝트 마법사",
        "Name[nb]": "Veiviser for nytt prosjekt",
        "Name[nds]": "Projekt-Hölper",
        "Name[nl]": "Nieuwe projectenassistent",
        "Name[pl]": "Pomocnik nowego projektu",
        "Name[pt]": "Assistente de Novos Projectos",
        "Name[pt_BR]": "Assistente de novo projeto",
        "Name[ru]": "Мастер создания проекта",
        "Name[sk]": "Sprievodca novým projektom",
        "Name[sl]": "Čarovnik za nov projekt",
        "Name[sv]": "Ny projektguide",
        "Name[tr]": "Yeni Proje Sihirbazı",
        "Name[ug]": "يېڭى قۇرۇلۇش يېتەكچىسى",
        "Name[uk]": "Майстер створення проєкту",
        "Name[x-test]": "xxNew Project Wizardxx",
        "Name[zh_CN]": "新工程向导",
        "Name[zh_TW]": "新增專案精靈",
        "Version": "0.1"
    },
    "X-KDevelop-Category": "Global",
    "X-KDevelop-Interfaces": [
        "org.kdevelop.ITemplateProvider"
    ],
    "X-KDevelop-Mode": "GUI"
}
