{
    "KPlugin": {
        "Category": "Project Management",
        "Description": "Configure which macros and include directories/files will be added to the parser during project parsing.",
        "Description[ar]": "اضبط أيّ الماكروهات والملفّات/الأدلّة المضمّنة ستُضاف إلى المحلّل أثناء تحليل المشروع.",
        "Description[az]": "Layihə təhlil edilərkən hansı makrosların və daxil olan qovluqların/faylların təhlil edilmək üçün əlvə ediləcəyini tənzimləyin.",
        "Description[ca@valencia]": "Configura quines macros i directoris/fitxers s'afegiran a l'analitzador durant l'anàlisi del projecte.",
        "Description[ca]": "Configura quines macros i directoris/fitxers s'afegiran a l'analitzador durant l'anàlisi del projecte.",
        "Description[de]": "Einstellung der Makros und Include-Ordner/-Dateien, die für den Parser während des Einlesens des Projekts hinzugefügt werden.",
        "Description[el]": "Διαμορφώνει τις μακροεντολές και τους include καταλόγους/αρχεία που θα προστεθούν στον αναλυτή κατά την ανάλυση του έργου.",
        "Description[en_GB]": "Configure which macros and include directories/files will be added to the parser during project parsing.",
        "Description[es]": "Configurar las macros y los directorios/archivos a incluir que se añadirán al analizador sintáctico durante el análisis de los proyectos.",
        "Description[et]": "Seadistamine, milliseid makrosid ja kaasatavaid katalooge/faile lisada parserile projekti parsimisel.",
        "Description[eu]": "Konfiguratu ze makro eta gehitze karpeta/fitxategi gehituko diren analizatzailera proiektuaren analisian.",
        "Description[fi]": "Määritä, mitkä makrot ja include-hakemistot/tiedostot lisätään jäsentimelle projektin jäsentämisen aikana.",
        "Description[fr]": "Configurer quelles macros et dossiers / fichiers à inclure seront ajoutés pour l'analyseur pendant l'analyse du projet.",
        "Description[gl]": "Configure que macros e ficheiros ou directorios de inclusión se engaden ao analizador do proxecto.",
        "Description[it]": "Configura quali macro e cartelle/file di inclusione saranno aggiunti all'analizzatore durante l'analisi del progetto.",
        "Description[ko]": "프로젝트를 구문 분석할 때 파서에 추가할 매크로와 인클루드 디렉터리/파일을 관리합니다.",
        "Description[nl]": "Stel in welke macro's en ingevoegde mappen/bestanden toegevoegd zullen worden aan de parser bij het ontleden van het project.",
        "Description[pl]": "Określa makra oraz pliki/katalogi dołączane uwzględniane przy przetwarzaniu projektu.",
        "Description[pt]": "Configura as macros e ficheiros/pastas de inclusão a adicionar ao processador, durante o processamento do projecto.",
        "Description[pt_BR]": "Configura quais macros e arquivos/pastas incluídos serão adicionados ao processador durante o processamento do projeto.",
        "Description[ru]": "Настройка макросов и каталогов включаемых файлов / включаемых файлов, которые будут добавлены в обработчик при обработке проекта",
        "Description[sk]": "Nastaviť, ktoré makrá a zahrnuté adresáre/súbory sa pridajú do spracovača počas spracovania projektu.",
        "Description[sl]": "Nastavi, kateri makri in mape/datoteke z vključitvami bodo dodane razčlenjevalniku med razčlenjevanjem projekta.",
        "Description[sv]": "Anpassa vilka makron och filer eller kataloger att inkludera som läggs till i tolken under projekttolkning.",
        "Description[tr]": "Hangi makroların ve dahil etme dizinlerinin/dosyaların ayrıştırma sürecinde ayrıştırıcıya ekleneceğini yapılandırın.",
        "Description[uk]": "Налаштувати макроси і включені каталоги або файли, які буде додано під час обробки проєкту.",
        "Description[x-test]": "xxConfigure which macros and include directories/files will be added to the parser during project parsing.xx",
        "Description[zh_CN]": "配置在解析工程时将添加哪些宏和包含目录/文件",
        "Icon": "kdevelop",
        "Id": "KDevDefinesAndIncludesManager",
        "Name": "Custom Defines And Includes Manager",
        "Name[az]": "Fərdi təyinetmə və daxiletmə meneceri",
        "Name[ca@valencia]": "Gestor per a personalitzar les definicions i inclusions",
        "Name[ca]": "Gestor per a personalitzar les definicions i inclusions",
        "Name[de]": "Verwaltung benutzerdefinierter Definitionen und Includes",
        "Name[el]": "Προσαρμοσμένος διαχειριστής defines και includes",
        "Name[en_GB]": "Custom Defines And Includes Manager",
        "Name[es]": "Gestor de definiciones e inclusiones personalizadas",
        "Name[et]": "Kohandatud definitsioonide ja kaasatute haldur",
        "Name[eu]": "Definizio eta gehitze pertsonalizatuen kudeatzailea",
        "Name[fi]": "Mukautettujen definejen ja includejen hallinta",
        "Name[fr]": "Gestionnaire de définitions et inclusions personnalisées",
        "Name[gl]": "Xestor de definicións e inclusións personalizadas",
        "Name[it]": "Gestore delle definizioni e inclusioni personalizzate",
        "Name[ko]": "사용자 정의 Define과 인클루드 관리자",
        "Name[nl]": "Beheerder van zelf gedefinieerd en invoegingen",
        "Name[pl]": "Zarządzanie własnymi definicjami i plikami dołączanymi",
        "Name[pt]": "Gestor de Definições e Inclusões Personalizadas",
        "Name[pt_BR]": "Gerenciador de definições e inclusões personalizadas",
        "Name[ru]": "Управление нестандартными определениями и включениями",
        "Name[sk]": "Správca vlastných definícií a zahrnutí",
        "Name[sl]": "Upravljalnik določitev in vključitev po meri",
        "Name[sv]": "Hantering av egna definitioner och inkluderingar",
        "Name[tr]": "Özel Tanımlama ve İçerme Yöneticisi",
        "Name[uk]": "Керування нетиповими визначеннями і включеннями",
        "Name[x-test]": "xxCustom Defines And Includes Managerxx",
        "Name[zh_CN]": "自定义定义和包含管理器"
    },
    "X-KDevelop-Interfaces": [
        "org.kdevelop.IDefinesAndIncludesManager"
    ],
    "X-KDevelop-LoadMode": "AlwaysOn",
    "X-KDevelop-Mode": "NoGUI"
}
