{
    "KPlugin": {
        "Authors": [
            {
                "Email": "powerfox@kde.ru",
                "Name": "Evgeniy Ivanov",
                "Name[ar]": "Evgeniy Ivanov",
                "Name[az]": "Evgeniy Ivanov",
                "Name[ca@valencia]": "Evgeniy Ivanov",
                "Name[ca]": "Evgeniy Ivanov",
                "Name[cs]": "Evgeniy Ivanov",
                "Name[de]": "Evgeniy Ivanov",
                "Name[el]": "Evgeniy Ivanov",
                "Name[en_GB]": "Evgeniy Ivanov",
                "Name[es]": "Evgeniy Ivanov",
                "Name[et]": "Evgeniy Ivanov",
                "Name[eu]": "Evgeniy Ivanov",
                "Name[fr]": "Evgeniy Ivanov",
                "Name[gl]": "Evgeniy Ivanov",
                "Name[it]": "Evgeniy Ivanov",
                "Name[ko]": "Evgeniy Ivanov",
                "Name[nl]": "Evgeniy Ivanov",
                "Name[nn]": "Evgeniy Ivanov",
                "Name[pl]": "Evgeniy Ivanov",
                "Name[pt]": "Evgeniy Ivanov",
                "Name[pt_BR]": "Evgeniy Ivanov",
                "Name[ru]": "Евгений Иванов",
                "Name[sk]": "Evgeniy Ivanov",
                "Name[sl]": "Evgeniy Ivanov",
                "Name[sv]": "Evgeniy Ivanov",
                "Name[tr]": "Evgeniy Ivanov",
                "Name[uk]": "Evgeniy Ivanov",
                "Name[x-test]": "xxEvgeniy Ivanovxx",
                "Name[zh_CN]": "Evgeniy Ivanov"
            }
        ],
        "Category": "Version Control",
        "Description": "This plugin integrates Git to KDevelop",
        "Description[ar]": "تكامل هذه الملحقة Git بِمطوّرك",
        "Description[az]": "Bu qoşma, Git'i KDevelop'a inteqrasiya edir",
        "Description[ca@valencia]": "Este connector integra Git a KDevelop",
        "Description[ca]": "Aquest connector integra el Git al KDevelop",
        "Description[cs]": "Tento modul integruje podporu pro Git v KDevelop",
        "Description[de]": "Dieses Modul integriert Git in KDevelop.",
        "Description[el]": "Αυτό το πρόσθετο ενσωματώνει το Git στο KDevelop",
        "Description[en_GB]": "This plugin integrates Git to KDevelop",
        "Description[es]": "Este complemento integra Git en KDevelop",
        "Description[et]": "See plugin lõimib Giti KDevelopiga",
        "Description[eu]": "Plugin honek Git KDevelopen integratzen du",
        "Description[fr]": "Ce module externe intègre la gestion de Git dans KDevelop",
        "Description[gl]": "Este complemento integra Git en KDevelop",
        "Description[it]": "Questa estensione integra Git in KDevelop",
        "Description[ko]": "이 플러그인은 KDevelop에 Git를 통합합니다",
        "Description[nl]": "Deze plug-in integreert Git in KDevelop",
        "Description[pl]": "Wplata Git w KDevelop",
        "Description[pt]": "Este 'plugin' integra o Git no KDevelop",
        "Description[pt_BR]": "Este plugin integra o Git ao KDevelop",
        "Description[ru]": "Это расширение интегрирует Git в KDevelop",
        "Description[sk]": "Tento plugin integruje GIT do KDevelop.",
        "Description[sl]": "Ta vstavek v KDevelop vgradi Git",
        "Description[sv]": "Insticksprogrammet integrerar Git i KDevelop",
        "Description[tr]": "Bu eklenti Git uygulamasını KDevelop ile bütünleştirir",
        "Description[uk]": "Цей додаток інтегрує Git із KDevelop",
        "Description[x-test]": "xxThis plugin integrates Git to KDevelopxx",
        "Description[zh_CN]": "此插件对 KDevelop 整合 Git",
        "Description[zh_TW]": "此外掛程式將 Git 整合進 KDevelop",
        "Icon": "git",
        "Id": "kdevgit",
        "License": "GPL",
        "Name": "Git Support",
        "Name[ar]": "دعم Git",
        "Name[az]": "Git dəstəyi",
        "Name[bg]": "Поддръжка на Git",
        "Name[ca@valencia]": "Implementació de Git",
        "Name[ca]": "Implementació de Git",
        "Name[cs]": "Podpora Git",
        "Name[da]": "Git-understøttelse",
        "Name[de]": "Git-Unterstützung",
        "Name[el]": "Υποστήριξη Git",
        "Name[en_GB]": "Git Support",
        "Name[es]": "Implementación de Git",
        "Name[et]": "Giti toetus",
        "Name[eu]": "Git bateragarritasuna",
        "Name[fr]": "Prise en charge de Git",
        "Name[ga]": "Tacaíocht Git",
        "Name[gl]": "Compatibilidade con Git",
        "Name[it]": "Supporto per Git",
        "Name[kk]": "Git қолдауы",
        "Name[ko]": "Git 지원",
        "Name[nds]": "Git-Ünnerstütten",
        "Name[nl]": "Git-ondersteuning",
        "Name[pa]": "Git ਸਹਿਯੋਗ",
        "Name[pl]": "Obsługa Git",
        "Name[pt]": "Suporte para o Git",
        "Name[pt_BR]": "Suporte ao Git",
        "Name[ru]": "Поддержка Git",
        "Name[sk]": "Podpora GIT",
        "Name[sl]": "Podpora za Git",
        "Name[sv]": "Git-stöd",
        "Name[tr]": "Git Desteği",
        "Name[ug]": "Git قوللىشى",
        "Name[uk]": "Підтримка Git",
        "Name[x-test]": "xxGit Supportxx",
        "Name[zh_CN]": "Git 支持",
        "Name[zh_TW]": "Git 支援",
        "Version": "0.9"
    },
    "X-KDevelop-Interfaces": [
        "org.kdevelop.IBasicVersionControl",
        "org.kdevelop.IDistributedVersionControl"
    ],
    "X-KDevelop-Mode": "GUI"
}
