{
    "KPlugin": {
        "Authors": [
            {
                "Name": "Anton Anikin",
                "Name[az]": "Anton Anikin",
                "Name[ca@valencia]": "Anton Anikin",
                "Name[ca]": "Anton Anikin",
                "Name[cs]": "Anton Anikin",
                "Name[de]": "Anton Anikin",
                "Name[el]": "Anton Anikin",
                "Name[en_GB]": "Anton Anikin",
                "Name[es]": "Anton Anikin",
                "Name[et]": "Anton Anikin",
                "Name[eu]": "Anton Anikin",
                "Name[fr]": "Anton Anikin",
                "Name[gl]": "Anton Anikin",
                "Name[it]": "Anton Anikin",
                "Name[ko]": "Anton Anikin",
                "Name[nl]": "Anton Anikin",
                "Name[nn]": "Anton Anikin",
                "Name[pl]": "Anton Anikin",
                "Name[pt]": "Anton Anikin",
                "Name[pt_BR]": "Anton Anikin",
                "Name[ru]": "Антон Аникин",
                "Name[sk]": "Anton Anikin",
                "Name[sl]": "Anton Anikin",
                "Name[sv]": "Anton Anikin",
                "Name[tr]": "Anton Anikin",
                "Name[uk]": "Anton Anikin",
                "Name[x-test]": "xxAnton Anikinxx",
                "Name[zh_CN]": "Anton Anikin"
            }
        ],
        "Category": "Analyzers",
        "Description": "This plugin integrates Clazy to KDevelop",
        "Description[az]": "Bu qoşma Clazy'ni KDevelop'a inteqrasiya edir",
        "Description[ca@valencia]": "Este connector integra Clazy a KDevelop",
        "Description[ca]": "Aquest connector integra el Clazy al KDevelop",
        "Description[cs]": "Tento modul integruje podporu pro Clazy v KDevelop",
        "Description[de]": "Dieses Modul integriert Clazy in KDevelop",
        "Description[el]": "Το πρόσθετο αυτό ενσωματώνει το Clazy στο KDevelop",
        "Description[en_GB]": "This plugin integrates Clazy to KDevelop",
        "Description[es]": "Este complemento integra Clazy en KDevelop",
        "Description[et]": "See plugin lõimib Clazy KDevelopiga",
        "Description[eu]": "Plugin honek Clazy KDevelopen integratzen du",
        "Description[fr]": "Ce module externe intègre Clazy dans KDevelop",
        "Description[gl]": "Este complemento integra Clazy en KDevelop",
        "Description[it]": "Questa estensione integra Clazy in KDevelop",
        "Description[ko]": "이 플러그인은 KDevelop에 Clazy를 통합합니다",
        "Description[nl]": "Deze plug-in integreert Clazy in KDevelop",
        "Description[pl]": "Wplata Clazy w KDevelop",
        "Description[pt]": "Este 'plugin' integra o Clazy no KDevelop",
        "Description[pt_BR]": "Este plugin integra o Clazy ao KDevelop",
        "Description[ru]": "Это расширение интегрирует поддержку Clazy в KDevelop",
        "Description[sk]": "Tento plugin integruje Clazy do KDevelop",
        "Description[sl]": "Ta vstavek povezuje Clazy s KDevelopom",
        "Description[sv]": "Insticksprogrammet integrerar Clazy i KDevelop",
        "Description[uk]": "За допомогою цього додатка можна інтегрувати Clazy до KDevelop",
        "Description[x-test]": "xxThis plugin integrates Clazy to KDevelopxx",
        "Description[zh_CN]": "此插件整合 Clazy 到 KDevelop",
        "Icon": "clazy",
        "Id": "kdevclazy",
        "License": "GPL",
        "Name": "Clazy Support",
        "Name[az]": "Clazy dəstəyi",
        "Name[ca@valencia]": "Implementació de Clazy",
        "Name[ca]": "Implementació de Clazy",
        "Name[cs]": "Podpora Clazy",
        "Name[de]": "Clazy-Unterstützung",
        "Name[el]": "Υποστήριξη Clazy",
        "Name[en_GB]": "Clazy Support",
        "Name[es]": "Implementación de Clazy",
        "Name[et]": "Clazy toetus",
        "Name[eu]": "Clazy bateragarritasuna",
        "Name[fr]": "Prise en charge de Clazy",
        "Name[gl]": "Compatibilidade con Clazy",
        "Name[it]": "Supporto per Clazy",
        "Name[ko]": "Clazy 지원",
        "Name[nl]": "Clazy-ondersteuning",
        "Name[pl]": "Obsługa Clazy",
        "Name[pt]": "Suporte para o Clazy",
        "Name[pt_BR]": "Suporte à Clazy",
        "Name[ru]": "Поддержка Clazy",
        "Name[sk]": "Podpora Clazy",
        "Name[sl]": "Podpora za Clazy",
        "Name[sv]": "Clazy-stöd",
        "Name[uk]": "Підтримка Clazy",
        "Name[x-test]": "xxClazy Supportxx",
        "Name[zh_CN]": "Clazy 支持"
    },
    "X-KDevelop-Category": "Global",
    "X-KDevelop-IRequired": [
        "org.kdevelop.IBuildSystemManager"
    ],
    "X-KDevelop-Mode": "GUI"
}
