{
    "KPlugin": {
        "Authors": [
            {
                "Name": "Dukju Ahn",
                "Name[ar]": "Dukju Ahn",
                "Name[az]": "Dukju Ahn",
                "Name[ca@valencia]": "Dukju Ahn",
                "Name[ca]": "Dukju Ahn",
                "Name[cs]": "Dukju Ahn",
                "Name[de]": "Dukju Ahn",
                "Name[el]": "Dukju Ahn",
                "Name[en_GB]": "Dukju Ahn",
                "Name[es]": "Dukju Ahn",
                "Name[et]": "Dukju Ahn",
                "Name[eu]": "Dukju Ahn",
                "Name[fr]": "Dukju Ahn",
                "Name[gl]": "Dukju Ahn",
                "Name[it]": "Dukju Ahn",
                "Name[ko]": "Dukju Ahn",
                "Name[nl]": "Dukju Ahn",
                "Name[nn]": "Dukju Ahn",
                "Name[pl]": "Dukju Ahn",
                "Name[pt]": "Dukju Ahn",
                "Name[pt_BR]": "Dukju Ahn",
                "Name[ru]": "Dukju Ahn",
                "Name[sk]": "Dukju Ahn",
                "Name[sl]": "Dukju Ahn",
                "Name[sv]": "Dukju Ahn",
                "Name[tr]": "Dukju Ahn",
                "Name[uk]": "Dukju Ahn",
                "Name[x-test]": "xxDukju Ahnxx",
                "Name[zh_CN]": "Dukju Ahn"
            }
        ],
        "Category": "Version Control",
        "Description": "This plugin integrates Subversion to KDevelop.",
        "Description[az]": "Bu qoşma, Subversion'u KDevelop'a inteqrasiya edir.",
        "Description[ca@valencia]": "Este connector integra Subversion en KDevelop.",
        "Description[ca]": "Aquest connector integra el Subversion en el KDevelop.",
        "Description[cs]": "Tento modul integruje podporu pro subversion v KDevelop",
        "Description[de]": "Dieses Modul integriert Subversion in KDevelop.",
        "Description[el]": "Αυτό το πρόσθετο ενσωματώνει το Subversion στο KDevelop.",
        "Description[en_GB]": "This plugin integrates Subversion to KDevelop.",
        "Description[es]": "Este complemento integra Subversion en KDevelop.",
        "Description[et]": "See plugin lõimib Subversioni KDevelopiga.",
        "Description[eu]": "Plugin honek Subversion integratzen du KDevelopera.",
        "Description[fr]": "Ce module intègre Subversion dans KDevelop.",
        "Description[gl]": "Este complemento integra Subversion en KDevelop.",
        "Description[it]": "Questa estensione integra Subversion in KDevelop.",
        "Description[ko]": "이 플러그인은 KDevelop에 Subversion을 통합합니다.",
        "Description[nl]": "Deze plugin integreert Subversion in KDevelop.",
        "Description[pl]": "Wplata Subversion w KDevelop",
        "Description[pt]": "Este 'plugin' integra o Subversion no KDevelop.",
        "Description[pt_BR]": "Este plugin integra o Subversion ao KDevelop.",
        "Description[ru]": "Это расширение интегрирует в KDevelop поддержку Subversion",
        "Description[sk]": "Tento plugin integruje subversion do KDevelop.",
        "Description[sl]": "Ta vstavek v KDevelop vgradi Subversion",
        "Description[sv]": "Insticksprogrammet integrerar Subversion i KDevelop.",
        "Description[tr]": "Bu eklenti Subversion ile KDevelop uygulamasını bütünleştirir.",
        "Description[uk]": "Цей додаток інтегрує Subversion із KDevelop.",
        "Description[x-test]": "xxThis plugin integrates Subversion to KDevelop.xx",
        "Description[zh_CN]": "此插件将 Subversion 整合到 KDevelop。",
        "Icon": "subversion",
        "Id": "kdevsubversion",
        "License": "GPL",
        "Name": "Subversion Support",
        "Name[az]": "Subversion dəstəyi",
        "Name[bg]": "Поддръжка на Subversion",
        "Name[ca@valencia]": "Implementació de Subversion",
        "Name[ca]": "Implementació del Subversion",
        "Name[cs]": "Podpora subversion",
        "Name[da]": "Subversion-understøttelse",
        "Name[de]": "Subversion-Unterstützung",
        "Name[el]": "Υποστήριξη Subversion",
        "Name[en_GB]": "Subversion Support",
        "Name[es]": "Implementación de Subversion",
        "Name[et]": "Subversioni toetus",
        "Name[eu]": "Subversion euskarria",
        "Name[fr]": "Prise en charge de Subversion",
        "Name[gl]": "Soporte de Subversion",
        "Name[it]": "Supporto per Subversion",
        "Name[kk]": "Subversion қолдауы",
        "Name[ko]": "Subversion 지원",
        "Name[nb]": "Støtte for subversion",
        "Name[nds]": "Subversion-Ünnerstütten",
        "Name[nl]": "Ondersteuning van subversion",
        "Name[nn]": "Subversion-støtte",
        "Name[pa]": "ਸਬਵਰਜਨ ਸਹਿਯੋਗ",
        "Name[pl]": "Obsługa Subversion",
        "Name[pt]": "Suporte para o Subversion",
        "Name[pt_BR]": "Suporte ao Subversion",
        "Name[ru]": "Поддержка Subversion",
        "Name[sk]": "Podpora subversion",
        "Name[sl]": "Podpora za Subversion",
        "Name[sv]": "Subversion-stöd",
        "Name[tr]": "Suversion Desteği",
        "Name[ug]": "Subversion قوللىشى",
        "Name[uk]": "Підтримка Subversion",
        "Name[x-test]": "xxSubversion Supportxx",
        "Name[zh_CN]": "Subversion 支持",
        "Name[zh_TW]": "Subversion 支援"
    },
    "X-KDevelop-IRequired": [
        "org.kdevelop.IOutputView"
    ],
    "X-KDevelop-Interfaces": [
        "org.kdevelop.IBasicVersionControl"
    ],
    "X-KDevelop-Mode": "GUI"
}
