{
    "KPlugin": {
        "Authors": [
            {
                "Email": "kossebau@kde.org",
                "Name": "Friedrich W. H. Kossebau",
                "Name[ar]": "Friedrich W. H. Kossebau",
                "Name[az]": "Friedrich W. H. Kossebau",
                "Name[ca@valencia]": "Friedrich W. H. Kossebau",
                "Name[ca]": "Friedrich W. H. Kossebau",
                "Name[cs]": "Friedrich W. H. Kossebau",
                "Name[de]": "Friedrich W. H. Kossebau",
                "Name[el]": "Friedrich W. H. Kossebau",
                "Name[en_GB]": "Friedrich W. H. Kossebau",
                "Name[es]": "Friedrich W. H. Kossebau",
                "Name[et]": "Friedrich W. H. Kossebau",
                "Name[eu]": "Friedrich W. H. Kossebau",
                "Name[fi]": "Friedrich W. H. Kossebau",
                "Name[fr]": "Friedrich W. H. Kossebau",
                "Name[gl]": "Friedrich W. H. Kossebau",
                "Name[it]": "Friedrich W. H. Kossebau",
                "Name[ko]": "Friedrich W. H. Kossebau",
                "Name[nl]": "Friedrich W. H. Kossebau",
                "Name[nn]": "Friedrich W.H. Kossebau",
                "Name[pl]": "Friedrich W. H. Kossebau",
                "Name[pt]": "Friedrich W. H. Kossebau",
                "Name[pt_BR]": "Friedrich W. H. Kossebau",
                "Name[ru]": "Friedrich W. H. Kossebau",
                "Name[sk]": "Friedrich W. H. Kossebau",
                "Name[sl]": "Friedrich W. H. Kossebau",
                "Name[sv]": "Friedrich W. H. Kossebau",
                "Name[tr]": "Friedrich W. H. Kossebau",
                "Name[uk]": "Friedrich W. H. Kossebau",
                "Name[x-test]": "xxFriedrich W. H. Kossebauxx",
                "Name[zh_CN]": "Friedrich W. H. Kossebau"
            }
        ],
        "Category": "Utilities",
        "Description": "Enables viewing and editing of the raw data of files (Okteta-based)",
        "Description[az]": "Faylların xam məlumatlarınının oxunmasını və onlara düzəliş edilməsini aktiv edir (Okteta-əsaslı)",
        "Description[ca@valencia]": "Permet la visualització i edició de les dades sense processar dels fitxers (basat en l'Okteta)",
        "Description[ca]": "Permet la visualització i edició de les dades sense processar dels fitxers (basat en l'Okteta)",
        "Description[de]": "Ermöglicht das Betrachten und Bearbeiten der Rohdaten von Dateien (basiert auf Okteta)",
        "Description[el]": "Ενεργοποιεί την προβολή και επεξεργασία των ακατέργαστων δεδομένων αρχείων (με βάση το octeta)",
        "Description[en_GB]": "Enables viewing and editing of the raw data of files (Okteta-based)",
        "Description[es]": "Activa la visualización y la edición de datos de archivos en bruto (basado en Okteta)",
        "Description[et]": "Võimaldab näha ja muuta failide toorandmeid (põhineb Oktetal)",
        "Description[eu]": "Fitxategien datu gordinak (Oktetan oinarrituz) ikusi eta editatzen ahalbidetzen du",
        "Description[fr]": "Permet l'aperçu et l'édition des données brutes de fichiers (repose sur Okteta)",
        "Description[gl]": "Permite visualizar e editar os datos en bruto de ficheiros (baseado en Okteta).",
        "Description[it]": "Abilita la visualizzazione e la modifica dei dati grezzi dei file (basato su Okteta)",
        "Description[ko]": "파일의 원시 데이터를 보고 편집하기(Okteta 사용)",
        "Description[nl]": "Schakelt het bekijken en bewerken van de ruwe gegevens van bestanden in (gebaseerd op Okteta)",
        "Description[pl]": "Umożliwia oglądanie i edytowanie nieprzetworzonych danych pliku (przy użyciu Oktety)",
        "Description[pt]": "Permite a visualização e edição dos dados em bruto dos ficheiros (baseado no Okteta)",
        "Description[pt_BR]": "Ativa a visualização e edição dos dados brutos dos arquivos (baseado no Okteta)",
        "Description[ru]": "Позволяет просматривать и редактировать необработанные данные в файлах (на основе Okteta)",
        "Description[sk]": "Povolí prezeranie a editáciu raw dát súborov (založené na Okteta)",
        "Description[sl]": "Omogoča pregledovanje in urejanje surovih podatkov datotek (temelji na Okteti)",
        "Description[sv]": "Möjliggör granskning och redigering av rådata i filer (baserad på Okteta)",
        "Description[tr]": "Dosyaların ham verisini okuma ve düzenlemeyi sağlar (Oktet-tabanlı)",
        "Description[uk]": "Уможливлює перегляд і редагування необроблених даних у файлах (на основі Okteta)",
        "Description[x-test]": "xxEnables viewing and editing of the raw data of files (Okteta-based)xx",
        "Description[zh_CN]": "允许查看和编辑文件的原始数据 (基于 Okteta)",
        "Icon": "okteta",
        "Id": "kdevokteta",
        "License": "GPL",
        "Name": "Hex Editor",
        "Name[ar]": "محرّر ستّ-عشريّ",
        "Name[az]": "Hex redaktoru",
        "Name[ca@valencia]": "Editor hexadecimal",
        "Name[ca]": "Editor hexadecimal",
        "Name[cs]": "Hexa editor",
        "Name[de]": "Hex-Editor",
        "Name[el]": "Επεξεργαστής δεκαεξαδικών",
        "Name[en_GB]": "Hex Editor",
        "Name[es]": "Editor hexadecimal",
        "Name[et]": "Binaarfailide redaktor",
        "Name[eu]": "Hex editorea",
        "Name[fr]": "Éditeur hexadécimal",
        "Name[gl]": "Editor de binario",
        "Name[it]": "Editor esadecimale",
        "Name[ko]": "16진수 편집기",
        "Name[nl]": "Hexbewerker",
        "Name[pl]": "Edytor szesnastkowy",
        "Name[pt]": "Editor Hexadecimal",
        "Name[pt_BR]": "Editor hexadecimal",
        "Name[ru]": "Шестнадцатеричный редактор",
        "Name[sk]": "Hex editor",
        "Name[sl]": "Šestnajstiški urejevalnik",
        "Name[sv]": "Hexadecimaleditor",
        "Name[tr]": "Hex Düzenleyici",
        "Name[uk]": "Шістнадцятковий редактор",
        "Name[x-test]": "xxHex Editorxx",
        "Name[zh_CN]": "十六进制编辑器",
        "Version": "0.1.0"
    },
    "X-KDevelop-Category": "Global",
    "X-KDevelop-Mode": "GUI"
}
